Usage • growthcleanr
…
# View a sample of the results
head(cleaned_data)
      id                               subjid sex  agedays    param measurement                  gcr_result
1: 83330 002986c5-354d-bb9d-c180-4ce26813ca28   1 20489.22 HEIGHTCM       151.1                     Include
2: 83332 002986c5-354d-bb9d-c180-4ce26813ca28   1 20860.22 HEIGHTCM       151.1                     Include
3: 83334 002986c5-354d-bb9d-c180-4ce26813ca28   1 20860.22 HEIGHTCM       150.6 Exclude-Same-Day-Extraneous
4: 83335 002986c5-354d-bb9d-c180-4ce26813ca28   1 21231.22 HEIGHTCM       151.1                     Include
5: 83337 002986c5-354d-bb9d-c180-4ce26813ca28   1 21602.22 HEIGHTCM       151.1                     Include
6: 83339 002986c5-354d-bb9d-c180-4ce26813ca28   1 21623.22 HEIGHTCM       151.1                     Include

# Summarize results by result type
cleaned_data %>% group_by(gcr_result) %>% tally(sort=TRUE)
# A tibble: 26 x 2
   gcr_result                      n
   <fct>                       <int>
 1 Include                     61652
 2 Exclude-Extraneous-Same-Day 11263
 3 Exclude-Carried-Forward      7093
 4 Exclude-Same-Day-Extraneous  4010
 5 Exclude-Same-Day-Identical    623
 6 Exclude-SD-Cutoff             175
 7 Exclude-EWMA-8                139
 8 Exclude-Distinct-3-Or-More    125
 9 Exclude-BIV                   108
10 Exclude-EWMA-Extreme           99
# … with 16 more rows
…
